ADC/Codigos fonte Digitais/Banco_de_Reg/traces.vcd
$date
     May 07, 2017       21:37:08
$end

$version
 SystemC 2.3.1-Accellera --- Apr  1 2017 23:29:32
$end

$timescale
     1 ps
$end

$scope module SystemC $end
$var wire   16  aaaaa  ADC10_A [15:0]  $end
$var wire    1  aaaab  clk       $end
$var wire    1  aaaac  request       $end
$upscope $end
$enddefinitions  $end

$comment
All initial values are dumped below at time 0 sec = 0 timescale units.
$end

$dumpvars
b0 aaaaa
1aaaab
0aaaac
$end

#500000000
b1 aaaaa
0aaaab
1aaaac

#550000000
0aaaac

#600000000
b10 aaaaa
1aaaac

#650000000
0aaaac

#700000000
b11 aaaaa
1aaaac

#750000000
0aaaac

#800000000
b100 aaaaa
1aaaac

#850000000
0aaaac

#900000000
b101 aaaaa
1aaaac

#950000000
0aaaac

#1000000000
b110 aaaaa
1aaaab
1aaaac

#1050000000
0aaaac

#1100000000
b111 aaaaa
1aaaac

#1150000000
0aaaac

#1200000000
b1000 aaaaa
1aaaac

#1250000000
0aaaac

#1300000000
b1001 aaaaa
1aaaac

#1350000000
0aaaac

#1400000000
b1010 aaaaa
1aaaac

#1450000000
0aaaac

#1500000000
b1 aaaaa
0aaaab
1aaaac

#1550000000
0aaaac

#1600000000
b10 aaaaa
1aaaac

#1650000000
0aaaac

#1700000000
b11 aaaaa
1aaaac

#1750000000
0aaaac

#1800000000
b100 aaaaa
1aaaac

#1850000000
0aaaac

#1900000000
b101 aaaaa
1aaaac

#1950000000
0aaaac

#2000000000
b110 aaaaa
1aaaab
1aaaac

#2050000000
0aaaac

#2100000000
b111 aaaaa
1aaaac

#2150000000
0aaaac

#2200000000
b1000 aaaaa
1aaaac

#2250000000
0aaaac

#2300000000
b1001 aaaaa
1aaaac

#2350000000
0aaaac

#2400000000
b1010 aaaaa
1aaaac

#2450000000
0aaaac

#2500000000
b1 aaaaa
0aaaab
1aaaac

#2550000000
0aaaac

#2600000000
b10 aaaaa
1aaaac

#2650000000
0aaaac

#2700000000
b11 aaaaa
1aaaac

#2750000000
0aaaac

#2800000000
b100 aaaaa
1aaaac

#2850000000
0aaaac

#2900000000
b101 aaaaa
1aaaac

#2950000000
0aaaac

#3000000000
b110 aaaaa
1aaaab
1aaaac

#3050000000
0aaaac

#3100000000
b111 aaaaa
1aaaac

#3150000000
0aaaac

#3200000000
b1000 aaaaa
1aaaac

#3250000000
0aaaac

#3300000000
b1001 aaaaa
1aaaac

#3350000000
0aaaac

#3400000000
b1010 aaaaa
1aaaac

#3450000000
0aaaac

#3500000000
b1 aaaaa
0aaaab
1aaaac

#3550000000
0aaaac

#3600000000
b10 aaaaa
1aaaac

#3650000000
0aaaac

#3700000000
b11 aaaaa
1aaaac

#3750000000
0aaaac

#3800000000
b100 aaaaa
1aaaac

#3850000000
0aaaac

#3900000000
b101 aaaaa
1aaaac

#3950000000
0aaaac

#4000000000
b110 aaaaa
1aaaab
1aaaac

#4050000000
0aaaac

#4100000000
b111 aaaaa
1aaaac

#4150000000
0aaaac

#4200000000
b1000 aaaaa
1aaaac

#4250000000
0aaaac

#4300000000
b1001 aaaaa
1aaaac

#4350000000
0aaaac

#4400000000
b1010 aaaaa
1aaaac

#4450000000
0aaaac

#4500000000
b1 aaaaa
0aaaab
1aaaac

#4550000000
0aaaac

#4600000000
b10 aaaaa
1aaaac

#4650000000
0aaaac

#4700000000
b11 aaaaa
1aaaac

#4750000000
0aaaac

#4800000000
b100 aaaaa
1aaaac

#4850000000
0aaaac

#4900000000
b101 aaaaa
1aaaac

#4950000000
0aaaac

#5000000000
b110 aaaaa
1aaaab
1aaaac

#5050000000
0aaaac

#5100000000
b111 aaaaa
1aaaac

#5150000000
0aaaac

#5200000000
b1000 aaaaa
1aaaac

#5250000000
0aaaac

#5300000000
b1001 aaaaa
1aaaac

#5350000000
0aaaac

#5400000000
b1010 aaaaa
1aaaac

#5450000000
0aaaac

#5500000000
b1 aaaaa
0aaaab
1aaaac

#5550000000
0aaaac

#5600000000
b10 aaaaa
1aaaac

#5650000000
0aaaac

#5700000000
b11 aaaaa
1aaaac

#5750000000
0aaaac

#5800000000
b100 aaaaa
1aaaac

#5850000000
0aaaac

#5900000000
b101 aaaaa
1aaaac

#5950000000
0aaaac

#6000000000
b110 aaaaa
1aaaab
1aaaac

#6050000000
0aaaac

#6100000000
b111 aaaaa
1aaaac

#6150000000
0aaaac

#6200000000
b1000 aaaaa
1aaaac

#6250000000
0aaaac

#6300000000
b1001 aaaaa
1aaaac

#6350000000
0aaaac

#6400000000
b1010 aaaaa
1aaaac

#6450000000
0aaaac

#6500000000
b1 aaaaa
0aaaab
1aaaac

#6550000000
0aaaac

#6600000000
b10 aaaaa
1aaaac

#6650000000
0aaaac

#6700000000
b11 aaaaa
1aaaac

#6750000000
0aaaac

#6800000000
b100 aaaaa
1aaaac

#6850000000
0aaaac

#6900000000
b101 aaaaa
1aaaac

#6950000000
0aaaac

#7000000000
b110 aaaaa
1aaaab
1aaaac

#7050000000
0aaaac

#7100000000
b111 aaaaa
1aaaac

#7150000000
0aaaac

#7200000000
b1000 aaaaa
1aaaac

#7250000000
0aaaac

#7300000000
b1001 aaaaa
1aaaac

#7350000000
0aaaac

#7400000000
b1010 aaaaa
1aaaac

#7450000000
0aaaac

#7500000000
b1 aaaaa
0aaaab
1aaaac

#7550000000
0aaaac

#7600000000
b10 aaaaa
1aaaac

#7650000000
0aaaac

#7700000000
b11 aaaaa
1aaaac

#7750000000
0aaaac

#7800000000
b100 aaaaa
1aaaac

#7850000000
0aaaac

#7900000000
b101 aaaaa
1aaaac

#7950000000
0aaaac

#8000000000
b110 aaaaa
1aaaab
1aaaac

#8050000000
0aaaac

#8100000000
b111 aaaaa
1aaaac

#8150000000
0aaaac

#8200000000
b1000 aaaaa
1aaaac

#8250000000
0aaaac

#8300000000
b1001 aaaaa
1aaaac

#8350000000
0aaaac

#8400000000
b1010 aaaaa
1aaaac

#8450000000
0aaaac

#8500000000
b1 aaaaa
0aaaab
1aaaac

#8550000000
0aaaac

#8600000000
b10 aaaaa
1aaaac

#8650000000
0aaaac

#8700000000
b11 aaaaa
1aaaac

#8750000000
0aaaac

#8800000000
b100 aaaaa
1aaaac

#8850000000
0aaaac

#8900000000
b101 aaaaa
1aaaac

#8950000000
0aaaac

#9000000000
b110 aaaaa
1aaaab
1aaaac

#9050000000
0aaaac

#9100000000
b111 aaaaa
1aaaac

#9150000000
0aaaac

#9200000000
b1000 aaaaa
1aaaac

#9250000000
0aaaac

#9300000000
b1001 aaaaa
1aaaac

#9350000000
0aaaac

#9400000000
b1010 aaaaa
1aaaac

#9450000000
0aaaac

#9500000000
b1 aaaaa
0aaaab
1aaaac

#9550000000
0aaaac

#9600000000
b10 aaaaa
1aaaac

#9650000000
0aaaac

#9700000000
b11 aaaaa
1aaaac

#9750000000
0aaaac

#9800000000
b100 aaaaa
1aaaac

#9850000000
0aaaac

#9900000000
b101 aaaaa
1aaaac

#9950000000
0aaaac

#10000000000
b110 aaaaa
1aaaab
1aaaac

#10050000000
0aaaac

#10100000000
b111 aaaaa
1aaaac

#10150000000
0aaaac

#10200000000
b1000 aaaaa
1aaaac

#10250000000
0aaaac

#10300000000
b1001 aaaaa
1aaaac

#10350000000
0aaaac

#10400000000
b1010 aaaaa
1aaaac

#10450000000
0aaaac

#10500000000
b1 aaaaa
0aaaab
1aaaac

#10550000000
0aaaac

#10600000000
b10 aaaaa
1aaaac

#10650000000
0aaaac

#10700000000
b11 aaaaa
1aaaac

#10750000000
0aaaac

#10800000000
b100 aaaaa
1aaaac

#10850000000
0aaaac

#10900000000
b101 aaaaa
1aaaac

#10950000000
0aaaac

#11000000000
b110 aaaaa
1aaaab
1aaaac

#11050000000
0aaaac

#11100000000
b111 aaaaa
1aaaac

#11150000000
0aaaac

#11200000000
b1000 aaaaa
1aaaac

#11250000000
0aaaac

#11300000000
b1001 aaaaa
1aaaac

#11350000000
0aaaac

#11400000000
b1010 aaaaa
1aaaac

#11450000000
0aaaac

#11500000000
b1 aaaaa
0aaaab
1aaaac

#11550000000
0aaaac

#11600000000
b10 aaaaa
1aaaac

#11650000000
0aaaac

#11700000000
b11 aaaaa
1aaaac

#11750000000
0aaaac

#11800000000
b100 aaaaa
1aaaac

#11850000000
0aaaac

#11900000000
b101 aaaaa
1aaaac

#11950000000
0aaaac

#12000000000
b110 aaaaa
1aaaab
1aaaac

#12050000000
0aaaac

#12100000000
b111 aaaaa
1aaaac

#12150000000
0aaaac

#12200000000
b1000 aaaaa
1aaaac

#12250000000
0aaaac

#12300000000
b1001 aaaaa
1aaaac

#12350000000
0aaaac

#12400000000
b1010 aaaaa
1aaaac

#12450000000
0aaaac

#12500000000
b1 aaaaa
0aaaab
1aaaac

#12550000000
0aaaac

#12600000000
b10 aaaaa
1aaaac

#12650000000
0aaaac

#12700000000
b11 aaaaa
1aaaac

#12750000000
0aaaac

#12800000000
b100 aaaaa
1aaaac

#12850000000
0aaaac

#12900000000
b101 aaaaa
1aaaac

#12950000000
0aaaac

#13000000000
b110 aaaaa
1aaaab
1aaaac

#13050000000
0aaaac

#13100000000
b111 aaaaa
1aaaac

#13150000000
0aaaac

#13200000000
b1000 aaaaa
1aaaac

#13250000000
0aaaac

#13300000000
b1001 aaaaa
1aaaac

#13350000000
0aaaac

#13400000000
b1010 aaaaa
1aaaac

#13450000000
0aaaac

#13500000000
b1 aaaaa
0aaaab
1aaaac

#13550000000
0aaaac

#13600000000
b10 aaaaa
1aaaac

#13650000000
0aaaac

#13700000000
b11 aaaaa
1aaaac

#13750000000
0aaaac

#13800000000
b100 aaaaa
1aaaac

#13850000000
0aaaac

#13900000000
b101 aaaaa
1aaaac

#13950000000
0aaaac

#14000000000
b110 aaaaa
1aaaab
1aaaac

#14050000000
0aaaac

#14100000000
b111 aaaaa
1aaaac

#14150000000
0aaaac

#14200000000
b1000 aaaaa
1aaaac

#14250000000
0aaaac

#14300000000
b1001 aaaaa
1aaaac

#14350000000
0aaaac

#14400000000
b1010 aaaaa
1aaaac

#14450000000
0aaaac

#14500000000
b1 aaaaa
0aaaab
1aaaac

#14550000000
0aaaac

#14600000000
b10 aaaaa
1aaaac

#14650000000
0aaaac

#14700000000
b11 aaaaa
1aaaac

#14750000000
0aaaac

#14800000000
b100 aaaaa
1aaaac

#14850000000
0aaaac

#14900000000
b101 aaaaa
1aaaac

#14950000000
0aaaac

#15000000000
b110 aaaaa
1aaaab
1aaaac

#15050000000
0aaaac

#15100000000
b111 aaaaa
1aaaac

#15150000000
0aaaac

#15200000000
b1000 aaaaa
1aaaac

#15250000000
0aaaac

#15300000000
b1001 aaaaa
1aaaac

#15350000000
0aaaac

#15400000000
b1010 aaaaa
1aaaac

#15450000000
0aaaac

#15500000000
b1 aaaaa
0aaaab
1aaaac

#15550000000
0aaaac

#15600000000
b10 aaaaa
1aaaac

#15650000000
0aaaac

#15700000000
b11 aaaaa
1aaaac

#15750000000
0aaaac

#15800000000
b100 aaaaa
1aaaac

#15850000000
0aaaac

#15900000000
b101 aaaaa
1aaaac

#15950000000
0aaaac

#16000000000
b110 aaaaa
1aaaab
1aaaac

#16050000000
0aaaac

#16100000000
b111 aaaaa
1aaaac

#16150000000
0aaaac

#16200000000
b1000 aaaaa
1aaaac

#16250000000
0aaaac

#16300000000
b1001 aaaaa
1aaaac

#16350000000
0aaaac

#16400000000
b1010 aaaaa
1aaaac

#16450000000
0aaaac

#16500000000
b1 aaaaa
0aaaab
1aaaac

#16550000000
0aaaac

#16600000000
b10 aaaaa
1aaaac

#16650000000
0aaaac

#16700000000
b11 aaaaa
1aaaac

#16750000000
0aaaac

#16800000000
b100 aaaaa
1aaaac

#16850000000
0aaaac

#16900000000
b101 aaaaa
1aaaac

#16950000000
0aaaac

#17000000000
b110 aaaaa
1aaaab
1aaaac

#17050000000
0aaaac

#17100000000
b111 aaaaa
1aaaac

#17150000000
0aaaac

#17200000000
b1000 aaaaa
1aaaac

#17250000000
0aaaac

#17300000000
b1001 aaaaa
1aaaac

#17350000000
0aaaac

#17400000000
b1010 aaaaa
1aaaac

#17450000000
0aaaac

#17500000000
b1 aaaaa
0aaaab
1aaaac

#17550000000
0aaaac

#17600000000
b10 aaaaa
1aaaac

#17650000000
0aaaac

#17700000000
b11 aaaaa
1aaaac

#17750000000
0aaaac

#17800000000
b100 aaaaa
1aaaac

#17850000000
0aaaac

#17900000000
b101 aaaaa
1aaaac

#17950000000
0aaaac

#18000000000
b110 aaaaa
1aaaab
1aaaac

#18050000000
0aaaac

#18100000000
b111 aaaaa
1aaaac

#18150000000
0aaaac

#18200000000
b1000 aaaaa
1aaaac

#18250000000
0aaaac

#18300000000
b1001 aaaaa
1aaaac

#18350000000
0aaaac

#18400000000
b1010 aaaaa
1aaaac

#18450000000
0aaaac

#18500000000
b1 aaaaa
0aaaab
1aaaac

#18550000000
0aaaac

#18600000000
b10 aaaaa
1aaaac

#18650000000
0aaaac

#18700000000
b11 aaaaa
1aaaac

#18750000000
0aaaac

#18800000000
b100 aaaaa
1aaaac

#18850000000
0aaaac

#18900000000
b101 aaaaa
1aaaac

#18950000000
0aaaac

#19000000000
b110 aaaaa
1aaaab
1aaaac

#19050000000
0aaaac

#19100000000
b111 aaaaa
1aaaac

#19150000000
0aaaac

#19200000000
b1000 aaaaa
1aaaac

#19250000000
0aaaac

#19300000000
b1001 aaaaa
1aaaac

#19350000000
0aaaac

#19400000000
b1010 aaaaa
1aaaac

#19450000000
0aaaac

#19500000000
b1 aaaaa
0aaaab
1aaaac

#19550000000
0aaaac

#19600000000
b10 aaaaa
1aaaac

#19650000000
0aaaac

#19700000000
b11 aaaaa
1aaaac

#19750000000
0aaaac

#19800000000
b100 aaaaa
1aaaac

#19850000000
0aaaac

#19900000000
b101 aaaaa
1aaaac

#19950000000
0aaaac

#20000000000
b110 aaaaa
1aaaab
1aaaac

#20050000000
0aaaac

#20100000000
b111 aaaaa
1aaaac

#20150000000
0aaaac

#20200000000
b1000 aaaaa
1aaaac

#20250000000
0aaaac

#20300000000
b1001 aaaaa
1aaaac

#20350000000
0aaaac

#20400000000
b1010 aaaaa
1aaaac

#20450000000
0aaaac

#20500000000
b1 aaaaa
0aaaab
1aaaac

#20550000000
0aaaac

#20600000000
b10 aaaaa
1aaaac

#20650000000
0aaaac

#20700000000
b11 aaaaa
1aaaac

#20750000000
0aaaac

#20800000000
b100 aaaaa
1aaaac

#20850000000
0aaaac

#20900000000
b101 aaaaa
1aaaac

#20950000000
0aaaac

#21000000000
b110 aaaaa
1aaaab
1aaaac

#21050000000
0aaaac

#21100000000
b111 aaaaa
1aaaac

#21150000000
0aaaac

#21200000000
b1000 aaaaa
1aaaac

#21250000000
0aaaac

#21300000000
b1001 aaaaa
1aaaac

#21350000000
0aaaac

#21400000000
b1010 aaaaa
1aaaac

#21450000000
0aaaac

#21500000000
b1 aaaaa
0aaaab
1aaaac

#21550000000
0aaaac

#21600000000
b10 aaaaa
1aaaac

#21650000000
0aaaac

#21700000000
b11 aaaaa
1aaaac

#21750000000
0aaaac

#21800000000
b100 aaaaa
1aaaac

#21850000000
0aaaac

#21900000000
b101 aaaaa
1aaaac

#21950000000
0aaaac

#22000000000
b110 aaaaa
1aaaab
1aaaac

#22050000000
0aaaac

#22100000000
b111 aaaaa
1aaaac

#22150000000
0aaaac

#22200000000
b1000 aaaaa
1aaaac

#22250000000
0aaaac

#22300000000
b1001 aaaaa
1aaaac

#22350000000
0aaaac

#22400000000
b1010 aaaaa
1aaaac

#22450000000
0aaaac

#22500000000
b1 aaaaa
0aaaab
1aaaac

#22550000000
0aaaac

#22600000000
b10 aaaaa
1aaaac

#22650000000
0aaaac

#22700000000
b11 aaaaa
1aaaac

#22750000000
0aaaac

#22800000000
b100 aaaaa
1aaaac

#22850000000
0aaaac

#22900000000
b101 aaaaa
1aaaac

#22950000000
0aaaac

#23000000000
b110 aaaaa
1aaaab
1aaaac

#23050000000
0aaaac

#23100000000
b111 aaaaa
1aaaac

#23150000000
0aaaac

#23200000000
b1000 aaaaa
1aaaac

#23250000000
0aaaac

#23300000000
b1001 aaaaa
1aaaac

#23350000000
0aaaac

#23400000000
b1010 aaaaa
1aaaac

#23450000000
0aaaac

#23500000000
b1 aaaaa
0aaaab
1aaaac

#23550000000
0aaaac

#23600000000
b10 aaaaa
1aaaac

#23650000000
0aaaac

#23700000000
b11 aaaaa
1aaaac

#23750000000
0aaaac

#23800000000
b100 aaaaa
1aaaac

#23850000000
0aaaac

#23900000000
b101 aaaaa
1aaaac

#23950000000
0aaaac

#24000000000
b110 aaaaa
1aaaab
1aaaac

#24050000000
0aaaac

#24100000000
b111 aaaaa
1aaaac

#24150000000
0aaaac

#24200000000
b1000 aaaaa
1aaaac

#24250000000
0aaaac

#24300000000
b1001 aaaaa
1aaaac

#24350000000
0aaaac

#24400000000
b1010 aaaaa
1aaaac

#24450000000
0aaaac

#24500000000
b1 aaaaa
0aaaab
1aaaac

#24550000000
0aaaac

#24600000000
b10 aaaaa
1aaaac

#24650000000
0aaaac

#24700000000
b11 aaaaa
1aaaac

#24750000000
0aaaac

#24800000000
b100 aaaaa
1aaaac

#24850000000
0aaaac

#24900000000
b101 aaaaa
1aaaac

#24950000000
0aaaac

#25000000000
b110 aaaaa
1aaaab
1aaaac

#25050000000
0aaaac

#25100000000
b111 aaaaa
1aaaac

#25150000000
0aaaac

#25200000000
b1000 aaaaa
1aaaac

#25250000000
0aaaac

#25300000000
b1001 aaaaa
1aaaac

#25350000000
0aaaac

#25400000000
b1010 aaaaa
1aaaac

#25450000000
0aaaac

#25500000000
b1 aaaaa
0aaaab
1aaaac

#25550000000
0aaaac

#25600000000
b10 aaaaa
1aaaac

#25650000000
0aaaac

#25700000000
b11 aaaaa
1aaaac

#25750000000
0aaaac

#25800000000
b100 aaaaa
1aaaac

#25850000000
0aaaac

#25900000000
b101 aaaaa
1aaaac

#25950000000
0aaaac

#26000000000
b110 aaaaa
1aaaab
1aaaac

#26050000000
0aaaac

#26100000000
b111 aaaaa
1aaaac

#26150000000
0aaaac

#26200000000
b1000 aaaaa
1aaaac

#26250000000
0aaaac

#26300000000
b1001 aaaaa
1aaaac

#26350000000
0aaaac

#26400000000
b1010 aaaaa
1aaaac

#26450000000
0aaaac

#26500000000
b1 aaaaa
0aaaab
1aaaac

#26550000000
0aaaac

#26600000000
b10 aaaaa
1aaaac

#26650000000
0aaaac

#26700000000
b11 aaaaa
1aaaac

#26750000000
0aaaac

#26800000000
b100 aaaaa
1aaaac

#26850000000
0aaaac

#26900000000
b101 aaaaa
1aaaac

#26950000000
0aaaac

#27000000000
b110 aaaaa
1aaaab
1aaaac

#27050000000
0aaaac

#27100000000
b111 aaaaa
1aaaac

#27150000000
0aaaac

#27200000000
b1000 aaaaa
1aaaac

#27250000000
0aaaac

#27300000000
b1001 aaaaa
1aaaac

#27350000000
0aaaac

#27400000000
b1010 aaaaa
1aaaac

#27450000000
0aaaac

#27500000000
b1 aaaaa
0aaaab
1aaaac

#27550000000
0aaaac

#27600000000
b10 aaaaa
1aaaac

#27650000000
0aaaac

#27700000000
b11 aaaaa
1aaaac

#27750000000
0aaaac

#27800000000
b100 aaaaa
1aaaac

#27850000000
0aaaac

#27900000000
b101 aaaaa
1aaaac

#27950000000
0aaaac

#28000000000
b110 aaaaa
1aaaab
1aaaac

#28050000000
0aaaac

#28100000000
b111 aaaaa
1aaaac

#28150000000
0aaaac

#28200000000
b1000 aaaaa
1aaaac

#28250000000
0aaaac

#28300000000
b1001 aaaaa
1aaaac

#28350000000
0aaaac

#28400000000
b1010 aaaaa
1aaaac

#28450000000
0aaaac

#28500000000
b1 aaaaa
0aaaab
1aaaac

#28550000000
0aaaac

#28600000000
b10 aaaaa
1aaaac

#28650000000
0aaaac

#28700000000
b11 aaaaa
1aaaac

#28750000000
0aaaac

#28800000000
b100 aaaaa
1aaaac

#28850000000
0aaaac

#28900000000
b101 aaaaa
1aaaac

#28950000000
0aaaac

#29000000000
b110 aaaaa
1aaaab
1aaaac

#29050000000
0aaaac

#29100000000
b111 aaaaa
1aaaac

#29150000000
0aaaac

#29200000000
b1000 aaaaa
1aaaac

#29250000000
0aaaac

#29300000000
b1001 aaaaa
1aaaac

#29350000000
0aaaac

#29400000000
b1010 aaaaa
1aaaac

#29450000000
0aaaac

#29500000000
b1 aaaaa
0aaaab
1aaaac

#29550000000
0aaaac

#29600000000
b10 aaaaa
1aaaac

#29650000000
0aaaac

#29700000000
b11 aaaaa
1aaaac

#29750000000
0aaaac

#29800000000
b100 aaaaa
1aaaac

#29850000000
0aaaac

#29900000000
b101 aaaaa
1aaaac

#29950000000
0aaaac

